…
did this work? Yes!

``` r
cv_df |> pull(train) |> nth(3)
```

    ## # A tibble: 176 × 3
    ##    range logratio    id
    ##    <dbl>    <dbl> <int>
    ##  1   390  -0.0504     1
    ##  2   391  -0.0601     2
    ##  3   393  -0.0419     3
    ##  4   394  -0.0510     4
    ##  5   396  -0.0599     5
    ##  6   397  -0.0284     6
    ##  7   402  -0.0294     9
    ##  8   403  -0.0395    10
    ##  9   408  -0.0312    13
    ## 10   409  -0.0382    14
    ## # ℹ 166 more rows
…
``` r
cv_df |>
  mutate(
    linear_fits = map(train, \(df) lm(logratio ~ range, data = df))
  ) |>
  mutate(
    rmse_linear = map2(linear_fits, test, rmse)
  )
```

    ## # A tibble: 100 × 5
    ##    train              test              .id   linear_fits rmse_linear
    ##    <list>             <list>            <chr> <list>      <list>     
    ##  1 <tibble [176 × 3]> <tibble [45 × 3]> 001   <lm>        <dbl [1]>  
    ##  2 <tibble [176 × 3]> <tibble [45 × 3]> 002   <lm>        <dbl [1]>  
    ##  3 <tibble [176 × 3]> <tibble [45 × 3]> 003   <lm>        <dbl [1]>  
    ##  4 <tibble [176 × 3]> <tibble [45 × 3]> 004   <lm>        <dbl [1]>  
    ##  5 <tibble [176 × 3]> <tibble [45 × 3]> 005   <lm>        <dbl [1]>  
    ##  6 <tibble [176 × 3]> <tibble [45 × 3]> 006   <lm>        <dbl [1]>  
    ##  7 <tibble [176 × 3]> <tibble [45 × 3]> 007   <lm>        <dbl [1]>  
    ##  8 <tibble [176 × 3]> <tibble [45 × 3]> 008   <lm>        <dbl [1]>  
    ##  9 <tibble [176 × 3]> <tibble [45 × 3]> 009   <lm>        <dbl [1]>  
    ## 10 <tibble [176 × 3]> <tibble [45 × 3]> 010   <lm>        <dbl [1]>  
    ## # ℹ 90 more rows

``` r
cv_df |>
  mutate(
    linear_fits = map(train, \(df) lm(logratio ~ range, data = df))
  ) |>
  mutate(
    rmse_linear = map2_dbl(linear_fits, test, rmse)
  )
```

    ## # A tibble: 100 × 5
    ##    train              test              .id   linear_fits rmse_linear
    ##    <list>             <list>            <chr> <list>            <dbl>
    ##  1 <tibble [176 × 3]> <tibble [45 × 3]> 001   <lm>              0.152
    ##  2 <tibble [176 × 3]> <tibble [45 × 3]> 002   <lm>              0.130
    ##  3 <tibble [176 × 3]> <tibble [45 × 3]> 003   <lm>              0.124
    ##  4 <tibble [176 × 3]> <tibble [45 × 3]> 004   <lm>              0.131
    ##  5 <tibble [176 × 3]> <tibble [45 × 3]> 005   <lm>              0.151
    ##  6 <tibble [176 × 3]> <tibble [45 × 3]> 006   <lm>              0.110
    ##  7 <tibble [176 × 3]> <tibble [45 × 3]> 007   <lm>              0.134
    ##  8 <tibble [176 × 3]> <tibble [45 × 3]> 008   <lm>              0.140
    ##  9 <tibble [176 × 3]> <tibble [45 × 3]> 009   <lm>              0.138
    ## 10 <tibble [176 × 3]> <tibble [45 × 3]> 010   <lm>              0.136
    ## # ℹ 90 more rows
